[
  {
    "capital": "Kabul",
    "iso": "AF",
    "name": "Afghanistan",
    "name_alternates": [],
    "capital_alternates": []
  },
  {
    "capital": "Tirana",
    "iso": "AL",
    "name": "Albania",
    "name_alternates": [],
    "capital_alternates": []
  },
  {
    "capital": "Algiers",
    "iso": "DZ",
    "name": "Algeria",
    "name_alternates": [],
    "capital_alternates": []
  },
  {
    "capital": "Pago Pago",
    "iso": "AS",
    "name": "American Samoa",
    "name_alternates": [],
    "capital_alternates": []
  },
  {
    "capital": "Andorra la Vella",
    "iso": "AD",
    "name": "Andorra",
    "name_alternates": [],
    "capital_alternates": []
  },
  {
    "capital": "Luanda",
    "iso": "AO",
    "name": "Angola",
    "name_alternates": [],
    "capital_alternates": []
  },
  {
    "capital": "The Valley",
    "iso": "AI",
    "name": "Anguilla",
    "name_alternates": [],
    "capital_alternates": []
  },
  {
    "capital": "Saint John's",
    "iso": "AG",
    "name": "Antigua and Barbuda",
    "name_alternates": [
      "Antigua",
      "Barbuda"
    ],
    "capital_alternates": [
      "Saint John"
    ]
  },
  {
    "capital": "Buenos Aires",
    "iso": "AR",
    "name": "Argentina",
    "name_alternates": [],
    "capital_alternates": []
  },
  {
    "capital": "Yerevan",
    "iso": "AM",
    "name": "Armenia",
    "name_alternates": [],
    "capital_alternates": []
  },
  {
    "capital": "Oranjestad",
    "iso": "AW",
    "name": "Aruba",
    "name_alternates": [],
    "capital_alternates": []
  },
  {
    "capital": "Canberra",
    "iso": "AU",
    "name": "Australia",
    "name_alternates": [],
    "capital_alternates": []
  },
  {
    "capital": "Vienna",
    "iso": "AT",
    "name": "Austria",
    "name_alternates": [],
    "capital_alternates": []
  },
  {
    "capital": "Baku",
    "iso": "AZ",
    "name": "Azerbaijan",
    "name_alternates": [],
    "capital_alternates": []
  },
  {
    "capital": "Nassau",
    "iso": "BS",
    "name": "Bahamas",
    "name_alternates": [],
    "capital_alternates": []
  },
  {
    "capital": "Manama",
    "iso": "BH",
    "name": "Bahrain",
    "name_alternates": [],
    "capital_alternates": []
  },
  {
    "capital": "Dhaka",
    "iso": "BD",
    "name": "Bangladesh",
    "name_alternates": [],
    "capital_alternates": []
  },
  {
    "capital": "Bridgetown",
    "iso": "BB",
    "name": "Barbados",
    "name_alternates": [],
    "capital_alternates": []
  },
  {
    "capital": "Minsk",
    "iso": "BY",
    "name": "Belarus",
    "name_alternates": [],
    "capital_alternates": []
  },
  {
    "capital": "Brussels",
    "iso": "BE",
    "name": "Belgium",
    "name_alternates": [],
    "capital_alternates": []
  },
  {
    "capital": "Belmopan",
    "iso": "BZ",
    "name": "Belize",
    "name_alternates": [],
    "capital_alternates": []
  },
  {
    "capital": "Porto-Novo",
    "iso": "BJ",
    "name": "Benin",
    "name_alternates": [],
    "capital_alternates": [
      "Porto Novo"
    ]
  },
  {
    "capital": "Hamilton",
    "iso": "BM",
    "name": "Bermuda",
    "name_alternates": [],
    "capital_alternates": []
  },
  {
    "capital": "Thimphu",
    "iso": "BT",
    "name": "Bhutan",
    "name_alternates": [],
    "capital_alternates": []
  },
  {
    "capital": "La Paz (administrative); Sucre (judicial)",
    "iso": "BO",
    "name": "Bolivia",
    "name_alternates": [],
    "capital_alternates": [
      "La Paz",
      "Sucre"
    ]
  },
  {
    "capital": "Sarajevo",
    "iso": "BA",
    "name": "Bosnia and Herzegovina",
    "name_alternates": [
      "Bosnia",
      "Herzegovina"
    ],
    "capital_alternates": []
  },
  {
    "capital": "Gaborone",
    "iso": "BW",
    "name": "Botswana",
    "name_alternates": [],
    "capital_alternates": []
  },
  {
    "capital": "Brasilia",
    "iso": "BR",
    "name": "Brazil",
    "name_alternates": [],
    "capital_alternates": []
  },
  {
    "capital": "Road Town",
    "iso": "VG",
    "name": "British Virgin Islands",
    "name_alternates": [],
    "capital_alternates": []
  },
  {
    "capital": "Bandar Seri Begawan",
    "iso": "BN",
    "name": "Brunei",
    "name_alternates": [
      "Brunei Darussalam"
    ],
    "capital_alternates": []
  },
  {
    "capital": "Sofia",
    "iso": "BG",
    "name": "Bulgaria",
    "name_alternates": [],
    "capital_alternates": []
  },
  {
    "capital": "Ouagadougou",
    "iso": "BF",
    "name": "Burkina Faso",
    "name_alternates": [],
    "capital_alternates": []
  },
  {
    "capital": "Bujumbura",
    "iso": "BI",
    "name": "Burundi",
    "name_alternates": [],
    "capital_alternates": []
  },
  {
    "capital": "Yamoussoukro",
    "iso": "CI",
    "name": "Ivory Coast",
    "name_alternates": [
      "Cote d'Ivoire"
    ],
    "capital_alternates": []
  },
  {
    "capital": "Phnom Penh",
    "iso": "KH",
    "name": "Cambodia",
    "name_alternates": [],
    "capital_alternates": []
  },
  {
    "capital": "Yaound\u00e9",
    "iso": "CM",
    "name": "Cameroon",
    "name_alternates": [],
    "capital_alternates": [
      "Yaoundé",
      "Yaounde"
    ]
  },
  {
    "capital": "Ottawa",
    "iso": "CA",
    "name": "Canada",
    "name_alternates": [],
    "capital_alternates": []
  },
  {
    "capital": "Praia",
    "iso": "CV",
    "name": "Cape Verde",
    "name_alternates": [
      "Cabo Verde"
    ],
    "capital_alternates": []
  },
  {
    "capital": "Bonaire, Sint Eustatius, Saba",
    "iso": "BQ",
    "name": "Caribbean Netherlands",
    "name_alternates": [],
    "capital_alternates": [
      "Bonaire",
      "Sint Eustatius",
      "Saba"
    ]
  },
  {
    "capital": "George Town",
    "iso": "KY",
    "name": "Cayman Islands",
    "name_alternates": [],
    "capital_alternates": []
  },
  {
    "capital": "Bangui",
    "iso": "CF",
    "name": "Central African Republic",
    "name_alternates": [],
    "capital_alternates": []
  },
  {
    "capital": "N'Djamena",
    "iso": "TD",
    "name": "Chad",
    "name_alternates": [],
    "capital_alternates": []
  },
  {
    "capital": "Santiago",
    "iso": "CL",
    "name": "Chile",
    "name_alternates": [],
    "capital_alternates": []
  },
  {
    "capital": "Beijing",
    "iso": "CN",
    "name": "China",
    "name_alternates": [],
    "capital_alternates": []
  },
  {
    "capital": "Bogot\u00e1",
    "iso": "CO",
    "name": "Colombia",
    "name_alternates": [],
    "capital_alternates": [
      "Bogotá",
      "Bogota"
    ]
  },
  {
    "capital": "Moroni",
    "iso": "KM",
    "name": "Comoros",
    "name_alternates": [],
    "capital_alternates": []
  },
  {
    "capital": "Brazzaville",
    "iso": "CG",
    "name": "Republic of the Congo",
    "name_alternates": [
      "Republic of Congo",
      "Congo Republic",
      "Congo-Brazzaville",
      "Congo Brazzaville"
    ],
    "capital_alternates": []
  },
  {
    "capital": "Avarua",
    "iso": "CK",
    "name": "Cook Islands",
    "name_alternates": [],
    "capital_alternates": []
  },
  {
    "capital": "San Jose",
    "iso": "CR",
    "name": "Costa Rica",
    "name_alternates": [],
    "capital_alternates": []
  },
  {
    "capital": "Zagreb",
    "iso": "HR",
    "name": "Croatia",
    "name_alternates": [],
    "capital_alternates": []
  },
  {
    "capital": "Havana",
    "iso": "CU",
    "name": "Cuba",
    "name_alternates": [],
    "capital_alternates": []
  },
  {
    "capital": "Willemstad",
    "iso": "CW",
    "name": "Curacao",
    "name_alternates": [],
    "capital_alternates": []
  },
  {
    "capital": "Nicosia",
    "iso": "CY",
    "name": "Cyprus",
    "name_alternates": [],
    "capital_alternates": []
  },
  {
    "capital": "Prague",
    "iso": "CZ",
    "name": "Czech Republic",
    "name_alternates": [],
    "capital_alternates": []
  },
  {
    "capital": "Kinshasa",
    "iso": "CD",
    "name": "Democratic Republic of the Congo",
    "name_alternates": [
      "Congo",
      "DR Congo",
      "Congo-Kinshasa",
      "Congo Kinshasa",
      "Zaire",
      "The Democratic Republic of the Congo",
      "Democratic Republic of Congo"
    ],
    "capital_alternates": []
  },
  {
    "capital": "Copenhagen",
    "iso": "DK",
    "name": "Denmark",
    "name_alternates": [],
    "capital_alternates": []
  },
  {
    "capital": "Djibouti",
    "iso": "DJ",
    "name": "Djibouti",
    "name_alternates": [],
    "capital_alternates": []
  },
  {
    "capital": "Roseau",
    "iso": "DM",
    "name": "Dominica",
    "name_alternates": [],
    "capital_alternates": []
  },
  {
    "capital": "Santo Domingo",
    "iso": "DO",
    "name": "Dominican Republic",
    "name_alternates": [],
    "capital_alternates": []
  },
  {
    "capital": "Quito",
    "iso": "EC",
    "name": "Ecuador",
    "name_alternates": [],
    "capital_alternates": []
  },
  {
    "capital": "Cairo",
    "iso": "EG",
    "name": "Egypt",
    "name_alternates": [],
    "capital_alternates": []
  },
  {
    "capital": "San Salvador",
    "iso": "SV",
    "name": "El Salvador",
    "name_alternates": [],
    "capital_alternates": []
  },
  {
    "capital": "Malabo",
    "iso": "GQ",
    "name": "Equatorial Guinea",
    "name_alternates": [],
    "capital_alternates": []
  },
  {
    "capital": "Asmara",
    "iso": "ER",
    "name": "Eritrea",
    "name_alternates": [],
    "capital_alternates": []
  },
  {
    "capital": "Tallinn",
    "iso": "EE",
    "name": "Estonia",
    "name_alternates": [],
    "capital_alternates": []
  },
  {
    "capital": "Addis Ababa",
    "iso": "ET",
    "name": "Ethiopia",
    "name_alternates": [],
    "capital_alternates": []
  },
  {
    "capital": "Stanley",
    "iso": "FK",
    "name": "Falkland Islands",
    "name_alternates": [],
    "capital_alternates": []
  },
  {
    "capital": "T\u00f3rshavn",
    "iso": "FO",
    "name": "Faroe Islands",
    "name_alternates": [],
    "capital_alternates": [
      "Tórshavn",
      "Torshavn"
    ]
  },
  {
    "capital": "Suva",
    "iso": "FJ",
    "name": "Fiji",
    "name_alternates": [],
    "capital_alternates": []
  },
  {
    "capital": "Helsinki",
    "iso": "FI",
    "name": "Finland",
    "name_alternates": [],
    "capital_alternates": []
  },
  {
    "capital": "Paris",
    "iso": "FR",
    "name": "France",
    "name_alternates": [],
    "capital_alternates": []
  },
  {
    "capital": "Cayenne",
    "iso": "GF",
    "name": "French Guiana",
    "name_alternates": [],
    "capital_alternates": []
  },
  {
    "capital": "Papeete",
    "iso": "PF",
    "name": "French Polynesia",
    "name_alternates": [],
    "capital_alternates": []
  },
  {
    "capital": "Libreville",
    "iso": "GA",
    "name": "Gabon",
    "name_alternates": [],
    "capital_alternates": []
  },
  {
    "capital": "Banjul",
    "iso": "GM",
    "name": "Gambia",
    "name_alternates": [],
    "capital_alternates": []
  },
  {
    "capital": "Tbilisi",
    "iso": "GE",
    "name": "Georgia",
    "name_alternates": [],
    "capital_alternates": []
  },
  {
    "capital": "Berlin",
    "iso": "DE",
    "name": "Germany",
    "name_alternates": [],
    "capital_alternates": []
  },
  {
    "capital": "Accra",
    "iso": "GH",
    "name": "Ghana",
    "name_alternates": [],
    "capital_alternates": []
  },
  {
    "capital": "Gibraltar",
    "iso": "GI",
    "name": "Gibraltar",
    "name_alternates": [],
    "capital_alternates": []
  },
  {
    "capital": "Athens",
    "iso": "GR",
    "name": "Greece",
    "name_alternates": [],
    "capital_alternates": []
  },
  {
    "capital": "Nuuk",
    "iso": "GL",
    "name": "Greenland",
    "name_alternates": [],
    "capital_alternates": []
  },
  {
    "capital": "St. George's",
    "iso": "GD",
    "name": "Grenada",
    "name_alternates": [],
    "capital_alternates": [
      "St. George",
      "Saint George's",
      "Saint George"
    ]
  },
  {
    "capital": "Basse-Terre",
    "iso": "GP",
    "name": "Guadeloupe",
    "name_alternates": [],
    "capital_alternates": [
      "Basse Terre"
    ]
  },
  {
    "capital": "Hag\u00e5t\u00f1a",
    "iso": "GU",
    "name": "Guam",
    "name_alternates": [],
    "capital_alternates": [
      "Hagåtña",
      "Hagatna"
    ]
  },
  {
    "capital": "Guatemala City",
    "iso": "GT",
    "name": "Guatemala",
    "name_alternates": [],
    "capital_alternates": []
  },
  {
    "capital": "Conakry",
    "iso": "GN",
    "name": "Guinea",
    "name_alternates": [],
    "capital_alternates": []
  },
  {
    "capital": "Bissau",
    "iso": "GW",
    "name": "Guinea-Bissau",
    "name_alternates": [],
    "capital_alternates": []
  },
  {
    "capital": "Georgetown",
    "iso": "GY",
    "name": "Guyana",
    "name_alternates": [],
    "capital_alternates": []
  },
  {
    "capital": "Port-au-Prince",
    "iso": "HT",
    "name": "Haiti",
    "name_alternates": [],
    "capital_alternates": [
      "Port au Prince"
    ]
  },
  {
    "capital": "Vatican City",
    "iso": "VA",
    "name": "Holy See",
    "name_alternates": [],
    "capital_alternates": []
  },
  {
    "capital": "Tegucigalpa",
    "iso": "HN",
    "name": "Honduras",
    "name_alternates": [],
    "capital_alternates": []
  },
  {
    "capital": "Hong Kong",
    "iso": "HK",
    "name": "Hong Kong",
    "name_alternates": [],
    "capital_alternates": []
  },
  {
    "capital": "Budapest",
    "iso": "HU",
    "name": "Hungary",
    "name_alternates": [],
    "capital_alternates": []
  },
  {
    "capital": "Reykjavik",
    "iso": "IS",
    "name": "Iceland",
    "name_alternates": [],
    "capital_alternates": []
  },
  {
    "capital": "New Delhi",
    "iso": "IN",
    "name": "India",
    "name_alternates": [],
    "capital_alternates": []
  },
  {
    "capital": "Jakarta",
    "iso": "ID",
    "name": "Indonesia",
    "name_alternates": [],
    "capital_alternates": []
  },
  {
    "capital": "Tehran",
    "iso": "IR",
    "name": "Iran",
    "name_alternates": [],
    "capital_alternates": []
  },
  {
    "capital": "Baghdad",
    "iso": "IQ",
    "name": "Iraq",
    "name_alternates": [],
    "capital_alternates": []
  },
  {
    "capital": "Dublin",
    "iso": "IE",
    "name": "Ireland",
    "name_alternates": [],
    "capital_alternates": []
  },
  {
    "capital": "Douglas",
    "iso": "IM",
    "name": "Isle of Man",
    "name_alternates": [],
    "capital_alternates": []
  },
  {
    "capital": "Jerusalem",
    "iso": "IL",
    "name": "Israel",
    "name_alternates": [],
    "capital_alternates": []
  },
  {
    "capital": "Rome",
    "iso": "IT",
    "name": "Italy",
    "name_alternates": [],
    "capital_alternates": []
  },
  {
    "capital": "Kingston",
    "iso": "JM",
    "name": "Jamaica",
    "name_alternates": [],
    "capital_alternates": []
  },
  {
    "capital": "Tokyo",
    "iso": "JP",
    "name": "Japan",
    "name_alternates": [],
    "capital_alternates": []
  },
  {
    "capital": "Amman",
    "iso": "JO",
    "name": "Jordan",
    "name_alternates": [],
    "capital_alternates": []
  },
  {
    "capital": "Astana",
    "iso": "KZ",
    "name": "Kazakhstan",
    "name_alternates": [],
    "capital_alternates": []
  },
  {
    "capital": "Nairobi",
    "iso": "KE",
    "name": "Kenya",
    "name_alternates": [],
    "capital_alternates": []
  },
  {
    "capital": "South Tarawa",
    "iso": "KI",
    "name": "Kiribati",
    "name_alternates": [],
    "capital_alternates": []
  },
  {
    "capital": "Kuwait City",
    "iso": "KW",
    "name": "Kuwait",
    "name_alternates": [],
    "capital_alternates": []
  },
  {
    "capital": "Bishkek",
    "iso": "KG",
    "name": "Kyrgyzstan",
    "name_alternates": [],
    "capital_alternates": []
  },
  {
    "capital": "Vientiane",
    "iso": "LA",
    "name": "Laos",
    "name_alternates": [],
    "capital_alternates": []
  },
  {
    "capital": "Riga",
    "iso": "LV",
    "name": "Latvia",
    "name_alternates": [],
    "capital_alternates": []
  },
  {
    "capital": "Beirut",
    "iso": "LB",
    "name": "Lebanon",
    "name_alternates": [],
    "capital_alternates": []
  },
  {
    "capital": "Maseru",
    "iso": "LS",
    "name": "Lesotho",
    "name_alternates": [],
    "capital_alternates": []
  },
  {
    "capital": "Monrovia",
    "iso": "LR",
    "name": "Liberia",
    "name_alternates": [],
    "capital_alternates": []
  },
  {
    "capital": "Tripoli",
    "iso": "LY",
    "name": "Libya",
    "name_alternates": [],
    "capital_alternates": []
  },
  {
    "capital": "Vaduz",
    "iso": "LI",
    "name": "Liechtenstein",
    "name_alternates": [],
    "capital_alternates": []
  },
  {
    "capital": "Vilnius",
    "iso": "LT",
    "name": "Lithuania",
    "name_alternates": [],
    "capital_alternates": []
  },
  {
    "capital": "Luxembourg",
    "iso": "LU",
    "name": "Luxembourg",
    "name_alternates": [],
    "capital_alternates": []
  },
  {
    "capital": "Macao",
    "iso": "MO",
    "name": "Macao",
    "name_alternates": [
      "Macau"
    ],
    "capital_alternates": []
  },
  {
    "capital": "Skopje",
    "iso": "MK",
    "name": "Macedonia",
    "name_alternates": [],
    "capital_alternates": []
  },
  {
    "capital": "Antananarivo",
    "iso": "MG",
    "name": "Madagascar",
    "name_alternates": [],
    "capital_alternates": []
  },
  {
    "capital": "Lilongwe",
    "iso": "MW",
    "name": "Malawi",
    "name_alternates": [],
    "capital_alternates": []
  },
  {
    "capital": "Kuala Lumpur",
    "iso": "MY",
    "name": "Malaysia",
    "name_alternates": [],
    "capital_alternates": []
  },
  {
    "capital": "Male",
    "iso": "MV",
    "name": "Maldives",
    "name_alternates": [],
    "capital_alternates": []
  },
  {
    "capital": "Bamako",
    "iso": "ML",
    "name": "Mali",
    "name_alternates": [],
    "capital_alternates": []
  },
  {
    "capital": "Valletta",
    "iso": "MT",
    "name": "Malta",
    "name_alternates": [],
    "capital_alternates": []
  },
  {
    "capital": "Majuro",
    "iso": "MH",
    "name": "Marshall Islands",
    "name_alternates": [],
    "capital_alternates": []
  },
  {
    "capital": "Fort-de-France",
    "iso": "MQ",
    "name": "Martinique",
    "name_alternates": [],
    "capital_alternates": [
      "Fort de France"
    ]
  },
  {
    "capital": "Nouakchott",
    "iso": "MR",
    "name": "Mauritania",
    "name_alternates": [],
    "capital_alternates": []
  },
  {
    "capital": "Port Louis",
    "iso": "MU",
    "name": "Mauritius",
    "name_alternates": [],
    "capital_alternates": []
  },
  {
    "capital": "Mamoudzou",
    "iso": "YT",
    "name": "Mayotte",
    "name_alternates": [],
    "capital_alternates": []
  },
  {
    "capital": "Mexico City",
    "iso": "MX",
    "name": "Mexico",
    "name_alternates": [],
    "capital_alternates": []
  },
  {
    "capital": "Palikir",
    "iso": "FM",
    "name": "Micronesia",
    "name_alternates": [],
    "capital_alternates": []
  },
  {
    "capital": "Chisinau",
    "iso": "MD",
    "name": "Moldova",
    "name_alternates": [],
    "capital_alternates": []
  },
  {
    "capital": "Monaco",
    "iso": "MC",
    "name": "Monaco",
    "name_alternates": [],
    "capital_alternates": []
  },
  {
    "capital": "Ulaanbaatar",
    "iso": "MN",
    "name": "Mongolia",
    "name_alternates": [],
    "capital_alternates": []
  },
  {
    "capital": "Podgorica",
    "iso": "ME",
    "name": "Montenegro",
    "name_alternates": [],
    "capital_alternates": []
  },
  {
    "capital": "Little Bay, Brades, Plymouth",
    "iso": "MS",
    "name": "Montserrat",
    "name_alternates": [],
    "capital_alternates": [
      "Little Bay",
      "Brades",
      "Plymouth"
    ]
  },
  {
    "capital": "Rabat",
    "iso": "MA",
    "name": "Morocco",
    "name_alternates": [],
    "capital_alternates": []
  },
  {
    "capital": "Maputo",
    "iso": "MZ",
    "name": "Mozambique",
    "name_alternates": [],
    "capital_alternates": []
  },
  {
    "capital": "Naypyidaw",
    "iso": "MM",
    "name": "Myanmar",
    "name_alternates": [
      "Burma"
    ],
    "capital_alternates": []
  },
  {
    "capital": "Windhoek",
    "iso": "NA",
    "name": "Namibia",
    "name_alternates": [],
    "capital_alternates": []
  },
  {
    "capital": "Yaren District",
    "iso": "NR",
    "name": "Nauru",
    "name_alternates": [],
    "capital_alternates": []
  },
  {
    "capital": "Kathmandu",
    "iso": "NP",
    "name": "Nepal",
    "name_alternates": [],
    "capital_alternates": []
  },
  {
    "capital": "Amsterdam",
    "iso": "NL",
    "name": "Netherlands",
    "name_alternates": [
      "Holland"
    ],
    "capital_alternates": []
  },
  {
    "capital": "Noum\u00e9a",
    "iso": "NC",
    "name": "New Caledonia",
    "name_alternates": [],
    "capital_alternates": [
      "Nouméa",
      "Noumea"
    ]
  },
  {
    "capital": "Wellington",
    "iso": "NZ",
    "name": "New Zealand",
    "name_alternates": [],
    "capital_alternates": []
  },
  {
    "capital": "Managua",
    "iso": "NI",
    "name": "Nicaragua",
    "name_alternates": [],
    "capital_alternates": []
  },
  {
    "capital": "Niamey",
    "iso": "NE",
    "name": "Niger",
    "name_alternates": [],
    "capital_alternates": []
  },
  {
    "capital": "Abuja",
    "iso": "NG",
    "name": "Nigeria",
    "name_alternates": [],
    "capital_alternates": []
  },
  {
    "capital": "Alofi",
    "iso": "NU",
    "name": "Niue",
    "name_alternates": [],
    "capital_alternates": []
  },
  {
    "capital": "Pyongyang",
    "iso": "KP",
    "name": "North Korea",
    "name_alternates": [],
    "capital_alternates": []
  },
  {
    "capital": "Saipan",
    "iso": "MP",
    "name": "Northern Mariana Islands",
    "name_alternates": [],
    "capital_alternates": []
  },
  {
    "capital": "Oslo",
    "iso": "NO",
    "name": "Norway",
    "name_alternates": [],
    "capital_alternates": []
  },
  {
    "capital": "Muscat",
    "iso": "OM",
    "name": "Oman",
    "name_alternates": [],
    "capital_alternates": []
  },
  {
    "capital": "Islamabad",
    "iso": "PK",
    "name": "Pakistan",
    "name_alternates": [],
    "capital_alternates": []
  },
  {
    "capital": "Ngerulmud",
    "iso": "PW",
    "name": "Palau",
    "name_alternates": [],
    "capital_alternates": []
  },
  {
    "capital": "Ramallah",
    "iso": "PS",
    "name": "Palestine State",
    "name_alternates": [
      "Palestine"
    ],
    "capital_alternates": []
  },
  {
    "capital": "Panama City",
    "iso": "PA",
    "name": "Panama",
    "name_alternates": [],
    "capital_alternates": []
  },
  {
    "capital": "Port Moresby",
    "iso": "PG",
    "name": "Papua New Guinea",
    "name_alternates": [],
    "capital_alternates": []
  },
  {
    "capital": "Asunci\u00f3n",
    "iso": "PY",
    "name": "Paraguay",
    "name_alternates": [],
    "capital_alternates": [
      "Asunción",
      "Asuncion"
    ]
  },
  {
    "capital": "Lima",
    "iso": "PE",
    "name": "Peru",
    "name_alternates": [],
    "capital_alternates": []
  },
  {
    "capital": "Manila",
    "iso": "PH",
    "name": "Philippines",
    "name_alternates": [],
    "capital_alternates": []
  },
  {
    "capital": "Warsaw",
    "iso": "PL",
    "name": "Poland",
    "name_alternates": [],
    "capital_alternates": []
  },
  {
    "capital": "Lisbon",
    "iso": "PT",
    "name": "Portugal",
    "name_alternates": [],
    "capital_alternates": []
  },
  {
    "capital": "San Juan",
    "iso": "PR",
    "name": "Puerto Rico",
    "name_alternates": [],
    "capital_alternates": []
  },
  {
    "capital": "Doha",
    "iso": "QA",
    "name": "Qatar",
    "name_alternates": [],
    "capital_alternates": []
  },
  {
    "capital": "Saint-Denis",
    "iso": "RE",
    "name": "Reunion",
    "name_alternates": [],
    "capital_alternates": [
      "Saint Denis"
    ]
  },
  {
    "capital": "Bucharest",
    "iso": "RO",
    "name": "Romania",
    "name_alternates": [],
    "capital_alternates": []
  },
  {
    "capital": "Moscow",
    "iso": "RU",
    "name": "Russia",
    "name_alternates": [],
    "capital_alternates": []
  },
  {
    "capital": "Kigali",
    "iso": "RW",
    "name": "Rwanda",
    "name_alternates": [],
    "capital_alternates": []
  },
  {
    "capital": "Jamestown",
    "iso": "SH",
    "name": "Saint Helena",
    "name_alternates": [],
    "capital_alternates": []
  },
  {
    "capital": "Basseterre",
    "iso": "KN",
    "name": "Saint Kitts and Nevis",
    "name_alternates": [],
    "capital_alternates": []
  },
  {
    "capital": "Castries",
    "iso": "LC",
    "name": "Saint Lucia",
    "name_alternates": [],
    "capital_alternates": []
  },
  {
    "capital": "Saint-Pierre",
    "iso": "PM",
    "name": "Saint Pierre and Miquelon",
    "name_alternates": [],
    "capital_alternates": [
      "Saint Pierre"
    ]
  },
  {
    "capital": "Kingstown",
    "iso": "VC",
    "name": "Saint Vincent and the Grenadines",
    "name_alternates": [],
    "capital_alternates": []
  },
  {
    "capital": "Apia",
    "iso": "WS",
    "name": "Samoa",
    "name_alternates": [],
    "capital_alternates": []
  },
  {
    "capital": "San Marino",
    "iso": "SM",
    "name": "San Marino",
    "name_alternates": [],
    "capital_alternates": []
  },
  {
    "capital": "S\u00e3o Tom\u00e9",
    "iso": "ST",
    "name": "Sao Tome and Principe",
    "name_alternates": [],
    "capital_alternates": [
      "São Tomé",
      "Sao Tome"
    ]
  },
  {
    "capital": "Riyadh",
    "iso": "SA",
    "name": "Saudi Arabia",
    "name_alternates": [],
    "capital_alternates": []
  },
  {
    "capital": "Dakar",
    "iso": "SN",
    "name": "Senegal",
    "name_alternates": [],
    "capital_alternates": []
  },
  {
    "capital": "Belgrade",
    "iso": "RS",
    "name": "Serbia",
    "name_alternates": [],
    "capital_alternates": []
  },
  {
    "capital": "Victoria",
    "iso": "SC",
    "name": "Seychelles",
    "name_alternates": [],
    "capital_alternates": []
  },
  {
    "capital": "Freetown",
    "iso": "SL",
    "name": "Sierra Leone",
    "name_alternates": [],
    "capital_alternates": []
  },
  {
    "capital": "Singapore City",
    "iso": "SG",
    "name": "Singapore",
    "name_alternates": [],
    "capital_alternates": [
      "Singapore"
    ]
  },
  {
    "capital": "Philipsburg",
    "iso": "SX",
    "name": "Sint Maarten",
    "name_alternates": [],
    "capital_alternates": []
  },
  {
    "capital": "Bratislava",
    "iso": "SK",
    "name": "Slovakia",
    "name_alternates": [],
    "capital_alternates": []
  },
  {
    "capital": "Ljubljana",
    "iso": "SI",
    "name": "Slovenia",
    "name_alternates": [],
    "capital_alternates": []
  },
  {
    "capital": "Honiara",
    "iso": "SB",
    "name": "Solomon Islands",
    "name_alternates": [],
    "capital_alternates": []
  },
  {
    "capital": "Mogadishu",
    "iso": "SO",
    "name": "Somalia",
    "name_alternates": [],
    "capital_alternates": []
  },
  {
    "capital": "Pretoria (administrative); Cape Town (legislative); Bloemfontein (judicial)",
    "iso": "ZA",
    "name": "South Africa",
    "name_alternates": [],
    "capital_alternates": [
      "Pretoria",
      "Cape Town",
      "Bloemfontein"
    ]
  },
  {
    "capital": "Seoul",
    "iso": "KR",
    "name": "South Korea",
    "name_alternates": [],
    "capital_alternates": []
  },
  {
    "capital": "Juba",
    "iso": "SS",
    "name": "South Sudan",
    "name_alternates": [],
    "capital_alternates": []
  },
  {
    "capital": "Madrid",
    "iso": "ES",
    "name": "Spain",
    "name_alternates": [],
    "capital_alternates": []
  },
  {
    "capital": "Sri Jayawardenepura Kotte, Colombo",
    "iso": "LK",
    "name": "Sri Lanka",
    "name_alternates": [
      "Srilanka"
    ],
    "capital_alternates": [
      "Sri Jayawardenepura Kotte",
      "Colombo"
    ]
  },
  {
    "capital": "Khartoum",
    "iso": "SD",
    "name": "Sudan",
    "name_alternates": [],
    "capital_alternates": []
  },
  {
    "capital": "Paramaribo",
    "iso": "SR",
    "name": "Suriname",
    "name_alternates": [],
    "capital_alternates": []
  },
  {
    "capital": "Mbabane",
    "iso": "SZ",
    "name": "Swaziland",
    "name_alternates": [],
    "capital_alternates": []
  },
  {
    "capital": "Stockholm",
    "iso": "SE",
    "name": "Sweden",
    "name_alternates": [],
    "capital_alternates": []
  },
  {
    "capital": "Bern",
    "iso": "CH",
    "name": "Switzerland",
    "name_alternates": [],
    "capital_alternates": []
  },
  {
    "capital": "Damascus",
    "iso": "SY",
    "name": "Syria",
    "name_alternates": [],
    "capital_alternates": []
  },
  {
    "capital": "Taipei",
    "iso": "TW",
    "name": "Taiwan",
    "name_alternates": [],
    "capital_alternates": []
  },
  {
    "capital": "Dushanbe",
    "iso": "TJ",
    "name": "Tajikistan",
    "name_alternates": [],
    "capital_alternates": []
  },
  {
    "capital": "Dodoma",
    "iso": "TZ",
    "name": "Tanzania",
    "name_alternates": [],
    "capital_alternates": []
  },
  {
    "capital": "Bangkok",
    "iso": "TH",
    "name": "Thailand",
    "name_alternates": [],
    "capital_alternates": []
  },
  {
    "capital": "Dili",
    "iso": "TL",
    "name": "Timor-Leste",
    "name_alternates": [
      "Timor Leste",
      "East Timor"
    ],
    "capital_alternates": []
  },
  {
    "capital": "Lom\u00e9",
    "iso": "TG",
    "name": "Togo",
    "name_alternates": [],
    "capital_alternates": [
      "Lomé",
      "Lome"
    ]
  },
  {
    "capital": "Nukunonu",
    "iso": "TK",
    "name": "Tokelau",
    "name_alternates": [],
    "capital_alternates": []
  },
  {
    "capital": "Nuku\u02bbalofa",
    "iso": "TO",
    "name": "Tonga",
    "name_alternates": [],
    "capital_alternates": [
      "Nukuʻalofa",
      "Nuku'alofa",
      "Nukualofa"
    ]
  },
  {
    "capital": "Port of Spain",
    "iso": "TT",
    "name": "Trinidad and Tobago",
    "name_alternates": [],
    "capital_alternates": []
  },
  {
    "capital": "Tunis",
    "iso": "TN",
    "name": "Tunisia",
    "name_alternates": [],
    "capital_alternates": []
  },
  {
    "capital": "Ankara",
    "iso": "TR",
    "name": "Turkey",
    "name_alternates": [],
    "capital_alternates": []
  },
  {
    "capital": "Ashgabat",
    "iso": "TM",
    "name": "Turkmenistan",
    "name_alternates": [],
    "capital_alternates": []
  },
  {
    "capital": "Cockburn Town",
    "iso": "TC",
    "name": "Turks and Caicos Islands",
    "name_alternates": [],
    "capital_alternates": []
  },
  {
    "capital": "Funafuti",
    "iso": "TV",
    "name": "Tuvalu",
    "name_alternates": [],
    "capital_alternates": []
  },
  {
    "capital": "Kampala",
    "iso": "UG",
    "name": "Uganda",
    "name_alternates": [],
    "capital_alternates": []
  },
  {
    "capital": "Kyiv",
    "iso": "UA",
    "name": "Ukraine",
    "name_alternates": [],
    "capital_alternates": []
  },
  {
    "capital": "Abu Dhabi",
    "iso": "AE",
    "name": "United Arab Emirates",
    "name_alternates": [
      "UAE"
    ],
    "capital_alternates": []
  },
  {
    "capital": "London",
    "iso": "GB",
    "name": "United Kingdom",
    "name_alternates": [
      "UK"
    ],
    "capital_alternates": []
  },
  {
    "capital": "Washington, D.C.",
    "iso": "US",
    "name": "United States",
    "name_alternates": [
      "America",
      "United States of America",
      "USA",
      "US"
    ],
    "capital_alternates": [
      "Washington D.C.",
      "Washington D C"
    ]
  },
  {
    "capital": "Charlotte Amalie",
    "iso": "VI",
    "name": "U.S. Virgin Islands",
    "name_alternates": [
      "United States Virgin Islands"
    ],
    "capital_alternates": []
  },
  {
    "capital": "Montevideo",
    "iso": "UY",
    "name": "Uruguay",
    "name_alternates": [],
    "capital_alternates": []
  },
  {
    "capital": "Tashkent",
    "iso": "UZ",
    "name": "Uzbekistan",
    "name_alternates": [],
    "capital_alternates": []
  },
  {
    "capital": "Port Vila",
    "iso": "VU",
    "name": "Vanuatu",
    "name_alternates": [],
    "capital_alternates": []
  },
  {
    "capital": "Caracas",
    "iso": "VE",
    "name": "Venezuela",
    "name_alternates": [],
    "capital_alternates": []
  },
  {
    "capital": "Hanoi",
    "iso": "VN",
    "name": "Vietnam",
    "name_alternates": [],
    "capital_alternates": []
  },
  {
    "capital": "Mata-Utu",
    "iso": "WF",
    "name": "Wallis and Futuna",
    "name_alternates": [],
    "capital_alternates": [
      "Mata Utu"
    ]
  },
  {
    "capital": "Laayoune",
    "iso": "EH",
    "name": "Western Sahara",
    "name_alternates": [],
    "capital_alternates": []
  },
  {
    "capital": "Sana'a",
    "iso": "YE",
    "name": "Yemen",
    "name_alternates": [],
    "capital_alternates": [
      "Sana",
      "Sanaa"
    ]
  },
  {
    "capital": "Lusaka",
    "iso": "ZM",
    "name": "Zambia",
    "name_alternates": [],
    "capital_alternates": []
  },
  {
    "capital": "Harare",
    "iso": "ZW",
    "name": "Zimbabwe",
    "name_alternates": [],
    "capital_alternates": []
  },
  {
    "capital": "Mariehamn",
    "iso": "AX",
    "name": "Aland Islands",
    "name_alternates": [],
    "capital_alternates": []
  },
  {
    "capital": "",
    "iso": "AQ",
    "name": "Antarctica",
    "name_alternates": [],
    "capital_alternates": []
  },
  {
    "capital": "",
    "iso": "BV",
    "name": "Bouvet Island",
    "name_alternates": [],
    "capital_alternates": []
  },
  {
    "capital": "",
    "iso": "IO",
    "name": "British Indian Ocean Territory",
    "name_alternates": [],
    "capital_alternates": []
  },
  {
    "capital": "Flying Fish Cove",
    "iso": "CX",
    "name": "Christmas Island",
    "name_alternates": [],
    "capital_alternates": []
  },
  {
    "capital": "West Island",
    "iso": "CC",
    "name": "Cocos (Keeling) Islands",
    "name_alternates": [
      "Cocos Islands",
      "Keeling Islands"
    ],
    "capital_alternates": []
  },
  {
    "capital": "Saint-Pierre, R\u00e9union",
    "iso": "TF",
    "name": "French Southern Territories",
    "name_alternates": [],
    "capital_alternates": [
      "Saint-Pierre",
      "Saint Pierre",
      "Réunion Island",
      "Reunion Island"
    ]
  },
  {
    "capital": "Saint Peter Port",
    "iso": "GG",
    "name": "Guernsey",
    "name_alternates": [],
    "capital_alternates": []
  },
  {
    "capital": "",
    "iso": "HM",
    "name": "Heard Island and Mcdonald Islands",
    "name_alternates": [],
    "capital_alternates": []
  },
  {
    "capital": "Saint Helier",
    "iso": "JE",
    "name": "Jersey",
    "name_alternates": [],
    "capital_alternates": []
  },
  {
    "capital": "Pristina",
    "iso": "XK",
    "name": "Kosovo",
    "name_alternates": [],
    "capital_alternates": []
  },
  {
    "capital": "Willemstad",
    "iso": "AN",
    "name": "Netherlands Antilles",
    "name_alternates": [],
    "capital_alternates": []
  },
  {
    "capital": "Kingston",
    "iso": "NF",
    "name": "Norfolk Island",
    "name_alternates": [],
    "capital_alternates": []
  },
  {
    "capital": "Adamstown",
    "iso": "PN",
    "name": "Pitcairn",
    "name_alternates": [],
    "capital_alternates": []
  },
  {
    "capital": "Gustavia",
    "iso": "BL",
    "name": "Saint Barthelemy",
    "name_alternates": [],
    "capital_alternates": []
  },
  {
    "capital": "Philipsburg",
    "iso": "MF",
    "name": "Saint Martin",
    "name_alternates": [],
    "capital_alternates": []
  },
  {
    "capital": "King Edward Point",
    "iso": "GS",
    "name": "South Georgia and the South Sandwich Islands",
    "name_alternates": [],
    "capital_alternates": []
  },
  {
    "capital": "",
    "iso": "SJ",
    "name": "Svalbard and Jan Mayen",
    "name_alternates": [],
    "capital_alternates": []
  },
  {
    "capital": "",
    "iso": "UM",
    "name": "United States Minor Outlying Islands",
    "name_alternates": [],
    "capital_alternates": []
  },
  {
    "capital": "Vatican City",
    "iso": "VA",
    "name": "Vatican City",
    "name_alternates": [],
    "capital_alternates": []
  }
]